<?xml version="1.0" encoding="UTF-8"?>
<CustomTab xmlns="http://soap.sforce.com/2006/04/metadata">
    <description>Show the task queue for Risk</description>
    <label>Risk Queue</label>
    <mobileReady>false</mobileReady>
    <motif>Custom38: Camera</motif>
    <page>TaskQueueSummary</page>
</CustomTab>
